-- Merging decision tree log ---
manifest
ADDED from /Users/inkg/Downloads/AndroidStudioProjects/cure/app/src/main/AndroidManifest.xml:2:1-236:12
	package
		ADDED from /Users/inkg/Downloads/AndroidStudioProjects/cure/app/src/main/AndroidManifest.xml:4:5-28
		INJECTED from /Users/inkg/Downloads/AndroidStudioProjects/cure/app/src/main/AndroidManifest.xml
		INJECTED from /Users/inkg/Downloads/AndroidStudioProjects/cure/app/src/main/AndroidManifest.xml
	android:versionName
		INJECTED from /Users/inkg/Downloads/AndroidStudioProjects/cure/app/src/main/AndroidManifest.xml
		INJECTED from /Users/inkg/Downloads/AndroidStudioProjects/cure/app/src/main/AndroidManifest.xml
	xmlns:tools
		ADDED from /Users/inkg/Downloads/AndroidStudioProjects/cure/app/src/main/AndroidManifest.xml:3:5-51
	xmlns:android
		ADDED from /Users/inkg/Downloads/AndroidStudioProjects/cure/app/src/main/AndroidManifest.xml:2:11-69
	android:versionCode
		INJECTED from /Users/inkg/Downloads/AndroidStudioProjects/cure/app/src/main/AndroidManifest.xml
		INJECTED from /Users/inkg/Downloads/AndroidStudioProjects/cure/app/src/main/AndroidManifest.xml
uses-permission#android.permission.INTERNET
ADDED from /Users/inkg/Downloads/AndroidStudioProjects/cure/app/src/main/AndroidManifest.xml:6:5-67
MERGED from [com.google.android.gms:play-services-ads-lite:10.0.1] /Users/inkg/.android/build-cache/9bde6462b39cd977fa2028eab51f9270d14d7c09/output/AndroidManifest.xml:19:5-66
MERGED from [com.google.android.gms:play-services-analytics:10.0.1] /Users/inkg/.android/build-cache/53c6afc4ef4d19c7265fa1b756b91e5f5c559549/output/AndroidManifest.xml:20:5-66
MERGED from [com.google.android.gms:play-services-appinvite:10.0.1] /Users/inkg/.android/build-cache/76915d3e6158266326afb2ecf6e3164a0bdc5a88/output/AndroidManifest.xml:18:5-66
MERGED from [com.google.firebase:firebase-crash:10.0.1] /Users/inkg/.android/build-cache/8ff4c8fa52b526273117f707daa78cc5af6e0257/output/AndroidManifest.xml:18:5-66
MERGED from [com.google.android.gms:play-services-tagmanager-api:10.0.1] /Users/inkg/.android/build-cache/e21168f0beefdede07a4e3243c828b1e0ee49733/output/AndroidManifest.xml:20:5-66
MERGED from [com.google.android.gms:play-services-analytics-impl:10.0.1] /Users/inkg/.android/build-cache/13cbd319922e25cb3052fbb86ba797b2ef210da8/output/AndroidManifest.xml:20:5-66
MERGED from [com.google.android.gms:play-services-maps:10.0.1] /Users/inkg/.android/build-cache/dbc1faa1e282ad350110366d28c16fc3ec824940/output/AndroidManifest.xml:20:5-66
MERGED from [com.google.android.gms:play-services-gcm:10.0.1] /Users/inkg/.android/build-cache/4e79801b681974c2f1d626746f2ef7bd2f998dcc/output/AndroidManifest.xml:21:5-66
MERGED from [com.google.android.gms:play-services-iid:10.0.1] /Users/inkg/.android/build-cache/dfc1ff7203ce8d23b9092804a27681293439777b/output/AndroidManifest.xml:21:5-66
MERGED from [com.google.firebase:firebase-analytics:10.0.1] /Users/inkg/.android/build-cache/432cc389c163af1aa8bb9ee27a882e4768e036ad/output/AndroidManifest.xml:20:5-66
MERGED from [com.google.firebase:firebase-analytics-impl:10.0.1] /Users/inkg/.android/build-cache/dc72a121259a6b1f9a5110cc11cbd1883ac38b04/output/AndroidManifest.xml:20:5-66
MERGED from [com.google.firebase:firebase-iid:10.0.1] /Users/inkg/.android/build-cache/ef4bad313b501558d1af6295f273dc94899a34c3/output/AndroidManifest.xml:20:5-66
	android:name
		ADDED from /Users/inkg/Downloads/AndroidStudioProjects/cure/app/src/main/AndroidManifest.xml:6:22-64
uses-permission#android.permission.ACCESS_FINE_LOCATION
ADDED from /Users/inkg/Downloads/AndroidStudioProjects/cure/app/src/main/AndroidManifest.xml:7:5-79
	android:name
		ADDED from /Users/inkg/Downloads/AndroidStudioProjects/cure/app/src/main/AndroidManifest.xml:7:22-76
uses-permission#android.permission.ACCESS_COARSE_LOCATION
ADDED from /Users/inkg/Downloads/AndroidStudioProjects/cure/app/src/main/AndroidManifest.xml:8:5-81
	android:name
		ADDED from /Users/inkg/Downloads/AndroidStudioProjects/cure/app/src/main/AndroidManifest.xml:8:22-78
uses-permission#android.permission.CALL_PHONE
ADDED from /Users/inkg/Downloads/AndroidStudioProjects/cure/app/src/main/AndroidManifest.xml:9:5-69
	android:name
		ADDED from /Users/inkg/Downloads/AndroidStudioProjects/cure/app/src/main/AndroidManifest.xml:9:22-66
application
ADDED from /Users/inkg/Downloads/AndroidStudioProjects/cure/app/src/main/AndroidManifest.xml:11:5-234:19
MERGED from [com.android.support:design:25.0.0] /Users/inkg/.android/build-cache/0910b8cf49615cc0c9f7e7ff7a12e58cd0fc5f3b/output/AndroidManifest.xml:25:5-20
MERGED from [com.android.support:transition:25.0.0] /Users/inkg/.android/build-cache/221d7c35ffc4d39c552547ac1284da03a11d506a/output/AndroidManifest.xml:22:5-20
MERGED from [com.facebook.android:facebook-android-sdk:4.20.0] /Users/inkg/.android/build-cache/dde8ae7dec1239f8df56a1c691404af47359be9e/output/AndroidManifest.xml:28:5-48:19
MERGED from [com.android.support:cardview-v7:25.0.0] /Users/inkg/.android/build-cache/b90a8fc6505cca3965fee9f2f198d271203d5c60/output/AndroidManifest.xml:22:5-20
MERGED from [com.android.support:customtabs:25.0.0] /Users/inkg/.android/build-cache/311eef7edeb95ddd806900a364be852bc4582839/output/AndroidManifest.xml:22:5-20
MERGED from [com.google.android.gms:play-services:10.0.1] /Users/inkg/.android/build-cache/360dd1597923fb0711600de9c99e43c0b15a9f3d/output/AndroidManifest.xml:5:5-20
MERGED from [com.google.android.gms:play-services-ads-lite:10.0.1] /Users/inkg/.android/build-cache/9bde6462b39cd977fa2028eab51f9270d14d7c09/output/AndroidManifest.xml:23:5-27:19
MERGED from [com.google.android.gms:play-services-analytics:10.0.1] /Users/inkg/.android/build-cache/53c6afc4ef4d19c7265fa1b756b91e5f5c559549/output/AndroidManifest.xml:26:5-19
MERGED from [com.google.android.gms:play-services-appinvite:10.0.1] /Users/inkg/.android/build-cache/76915d3e6158266326afb2ecf6e3164a0bdc5a88/output/AndroidManifest.xml:19:5-26:19
MERGED from [com.google.android.gms:play-services-auth:10.0.1] /Users/inkg/.android/build-cache/9f8a74225df025fd45009570616517873d798436/output/AndroidManifest.xml:19:5-25:19
MERGED from [com.google.android.gms:play-services-cast-framework:10.0.1] /Users/inkg/.android/build-cache/0fb74694bbd38bc5a47743a263b0322223a66fee/output/AndroidManifest.xml:4:5-8:19
MERGED from [com.google.android.gms:play-services-cast:10.0.1] /Users/inkg/.android/build-cache/e5b3232d3e03c3d3cf0e5bcc6d99b42c068a931f/output/AndroidManifest.xml:18:5-19
MERGED from [com.android.support:mediarouter-v7:24.0.0] /Users/inkg/.android/build-cache/eed9058d7aa7b168a91d049f7c3bc1aa511fccd4/output/AndroidManifest.xml:22:5-20
MERGED from [com.android.support:palette-v7:24.0.0] /Users/inkg/.android/build-cache/cf464aebcfcf309d43a0507ad69325b234428212/output/AndroidManifest.xml:22:5-23:19
MERGED from [com.google.android.gms:play-services-clearcut:10.0.1] /Users/inkg/.android/build-cache/685208502b15f0907bc8ae4b2b3334b2a134ba8c/output/AndroidManifest.xml:18:5-19
MERGED from [com.google.firebase:firebase-config:10.0.1] /Users/inkg/.android/build-cache/8ceec8f61e5afafbab40197163e21ffa1f34c08b/output/AndroidManifest.xml:18:5-19
MERGED from [com.google.android.gms:play-services-awareness:10.0.1] /Users/inkg/.android/build-cache/68dbc3554c35c541109418588778ad865dd8e8af/output/AndroidManifest.xml:18:5-19
MERGED from [com.google.firebase:firebase-crash:10.0.1] /Users/inkg/.android/build-cache/8ff4c8fa52b526273117f707daa78cc5af6e0257/output/AndroidManifest.xml:22:5-23:19
MERGED from [com.google.firebase:firebase-auth:10.0.1] /Users/inkg/.android/build-cache/c957e49492b3f619a45541b46589e541a9f5964c/output/AndroidManifest.xml:19:5-20:19
MERGED from [com.google.android.gms:play-services-fitness:10.0.1] /Users/inkg/.android/build-cache/34f4c8bcb5ef7091b1a085b178ca334236ae9fb5/output/AndroidManifest.xml:18:5-19
MERGED from [com.google.android.gms:play-services-games:10.0.1] /Users/inkg/.android/build-cache/03097dccac5cf9296f082789214c1746e021fc3b/output/AndroidManifest.xml:18:5-19
MERGED from [com.google.android.gms:play-services-drive:10.0.1] /Users/inkg/.android/build-cache/cc3445ab9c6e805e1515313b5202717a8e268e49/output/AndroidManifest.xml:18:5-19
MERGED from [com.google.android.gms:play-services-gass:10.0.1] /Users/inkg/.android/build-cache/a15f9b9b3d6bf2e9192b8179aaf31e512a72b1fd/output/AndroidManifest.xml:4:5-19
MERGED from [com.google.firebase:firebase-appindexing:10.0.1] /Users/inkg/.android/build-cache/c344e9e882ad9e62cac5a951bc6fb2e4f0651a51/output/AndroidManifest.xml:18:5-19
MERGED from [com.google.android.gms:play-services-nearby:10.0.1] /Users/inkg/.android/build-cache/d0779a03fbc948f8db8824b370ae2e53fa17326c/output/AndroidManifest.xml:5:5-19
MERGED from [com.google.android.gms:play-services-panorama:10.0.1] /Users/inkg/.android/build-cache/7539815089bbf7a249d69825392d22de783fba19/output/AndroidManifest.xml:18:5-19
MERGED from [com.google.android.gms:play-services-places:10.0.1] /Users/inkg/.android/build-cache/02be4b9a191dd105308cd7cf4424d13b71c72f68/output/AndroidManifest.xml:18:5-19
MERGED from [com.google.android.gms:play-services-plus:10.0.1] /Users/inkg/.android/build-cache/ecf3a782291e2e33be765661092c38e1d50a9e96/output/AndroidManifest.xml:18:5-19
MERGED from [com.google.android.gms:play-services-safetynet:10.0.1] /Users/inkg/.android/build-cache/0a6dc7dc3e40438550b5b1ed3183eece2871c0b5/output/AndroidManifest.xml:18:5-19
MERGED from [com.google.android.gms:play-services-tagmanager-api:10.0.1] /Users/inkg/.android/build-cache/e21168f0beefdede07a4e3243c828b1e0ee49733/output/AndroidManifest.xml:23:5-33:19
MERGED from [com.google.android.gms:play-services-tagmanager-v4-impl:10.0.1] /Users/inkg/.android/build-cache/a785d92313e9effaaf1234908eccd8da4714b2b1/output/AndroidManifest.xml:19:5-19
MERGED from [com.google.android.gms:play-services-analytics-impl:10.0.1] /Users/inkg/.android/build-cache/13cbd319922e25cb3052fbb86ba797b2ef210da8/output/AndroidManifest.xml:26:5-19
MERGED from [com.google.android.gms:play-services-vision:10.0.1] /Users/inkg/.android/build-cache/af675200d4226b7fd5dc5243dc36b450552af396/output/AndroidManifest.xml:4:5-19
MERGED from [com.google.android.gms:play-services-identity:10.0.1] /Users/inkg/.android/build-cache/b914d65c69b292581f3e3e29abb771854c1460c6/output/AndroidManifest.xml:18:5-19
MERGED from [com.google.android.gms:play-services-maps:10.0.1] /Users/inkg/.android/build-cache/dbc1faa1e282ad350110366d28c16fc3ec824940/output/AndroidManifest.xml:24:5-19
MERGED from [com.google.android.gms:play-services-wearable:10.0.1] /Users/inkg/.android/build-cache/d3cac2b48358b2e0b84dfcfcdef3fd652703c2de/output/AndroidManifest.xml:18:5-19
MERGED from [com.google.android.gms:play-services-location:10.0.1] /Users/inkg/.android/build-cache/39fcbb427d1de248a39a55d9b5bee16e2150e72a/output/AndroidManifest.xml:4:5-19
MERGED from [com.google.android.gms:play-services-gcm:10.0.1] /Users/inkg/.android/build-cache/4e79801b681974c2f1d626746f2ef7bd2f998dcc/output/AndroidManifest.xml:23:5-19
MERGED from [com.google.android.gms:play-services-iid:10.0.1] /Users/inkg/.android/build-cache/dfc1ff7203ce8d23b9092804a27681293439777b/output/AndroidManifest.xml:23:5-19
MERGED from [com.google.android.gms:play-services-base:10.0.1] /Users/inkg/.android/build-cache/4a4b54de7de921bc0ac5379b05cbce49c1bd7389/output/AndroidManifest.xml:18:5-20:19
MERGED from [com.kakao.sdk:auth:1.1.30] /Users/inkg/.android/build-cache/fcbd22f5923a3dc90fa4ec653bdbccb73eb89986/output/AndroidManifest.xml:11:5-23:19
MERGED from [gun0912.ted:tedpermission:1.0.2] /Users/inkg/.android/build-cache/86c0dd72c4b55044c73b091dea782ccd5f7d0fb9/output/AndroidManifest.xml:9:5-13:19
MERGED from [com.android.support:appcompat-v7:25.0.0] /Users/inkg/.android/build-cache/664913ce647c97dd85de7f4dc72d91a99ba95e39/output/AndroidManifest.xml:25:5-20
MERGED from [com.android.support:animated-vector-drawable:25.0.0] /Users/inkg/.android/build-cache/aeb450a4a9f31821f4f7531df08069068431b4ee/output/AndroidManifest.xml:22:5-20
MERGED from [com.android.support:support-vector-drawable:25.0.0] /Users/inkg/.android/build-cache/bdcc866c98b9298032606f59ece25b5312b451ad/output/AndroidManifest.xml:23:5-20
MERGED from [com.google.firebase:firebase-core:10.0.1] /Users/inkg/.android/build-cache/03ebbc785e3d69c0829bf0ce20004135f9a5ae27/output/AndroidManifest.xml:5:5-20
MERGED from [com.google.firebase:firebase-analytics:10.0.1] /Users/inkg/.android/build-cache/432cc389c163af1aa8bb9ee27a882e4768e036ad/output/AndroidManifest.xml:24:5-33:19
MERGED from [com.google.firebase:firebase-analytics-impl:10.0.1] /Users/inkg/.android/build-cache/dc72a121259a6b1f9a5110cc11cbd1883ac38b04/output/AndroidManifest.xml:24:5-28:19
MERGED from [com.google.firebase:firebase-messaging:10.0.1] /Users/inkg/.android/build-cache/a0cdf3e8244841f811406207b28dfd47230e22ef/output/AndroidManifest.xml:19:5-29:19
MERGED from [com.google.firebase:firebase-iid:10.0.1] /Users/inkg/.android/build-cache/ef4bad313b501558d1af6295f273dc94899a34c3/output/AndroidManifest.xml:28:5-50:19
MERGED from [com.google.firebase:firebase-common:10.0.1] /Users/inkg/.android/build-cache/98b068c25abcd044564aa88d3ec8b3420e987280/output/AndroidManifest.xml:4:5-7:19
MERGED from [com.google.android.gms:play-services-tasks:10.0.1] /Users/inkg/.android/build-cache/a86acdfa1789b5c19e1c8657cb81ac4f4648d5c1/output/AndroidManifest.xml:4:5-19
MERGED from [com.google.android.gms:play-services-basement:10.0.1] /Users/inkg/.android/build-cache/d103f89c97152e4c278470aae83350d7e449bf71/output/AndroidManifest.xml:19:5-21:19
MERGED from [com.android.support:support-v4:25.0.0] /Users/inkg/.android/build-cache/90096472bc6afcc4a8872b25e2116a9eecd3e9aa/output/AndroidManifest.xml:25:5-20
MERGED from [com.android.support:support-fragment:25.0.0] /Users/inkg/.android/build-cache/fd09ab1746b071e524b7da72498ecc438ad6d269/output/AndroidManifest.xml:25:5-20
MERGED from [com.android.support:support-media-compat:25.0.0] /Users/inkg/.android/build-cache/95c30f337c91e94dc70a7c8c06a18008e40ae943/output/AndroidManifest.xml:25:5-20
MERGED from [com.android.support:support-core-ui:25.0.0] /Users/inkg/.android/build-cache/5d479f06ee5d5df4c8b3f88fa6195873c233941b/output/AndroidManifest.xml:25:5-20
MERGED from [com.android.support:support-core-utils:25.0.0] /Users/inkg/.android/build-cache/58ba599cd79850745440d5db74dff80ad8243b49/output/AndroidManifest.xml:25:5-20
MERGED from [com.android.support:support-compat:25.0.0] /Users/inkg/.android/build-cache/b882b04bba7b54d78049f621ca9dc23d9074efc5/output/AndroidManifest.xml:25:5-20
	android:label
		ADDED from /Users/inkg/Downloads/AndroidStudioProjects/cure/app/src/main/AndroidManifest.xml:16:9-45
	android:supportsRtl
		ADDED from /Users/inkg/Downloads/AndroidStudioProjects/cure/app/src/main/AndroidManifest.xml:18:9-35
	android:hardwareAccelerated
		ADDED from /Users/inkg/Downloads/AndroidStudioProjects/cure/app/src/main/AndroidManifest.xml:14:9-44
	android:allowBackup
		ADDED from /Users/inkg/Downloads/AndroidStudioProjects/cure/app/src/main/AndroidManifest.xml:13:9-36
	android:icon
		ADDED from /Users/inkg/Downloads/AndroidStudioProjects/cure/app/src/main/AndroidManifest.xml:15:9-44
	android:largeHeap
		ADDED from /Users/inkg/Downloads/AndroidStudioProjects/cure/app/src/main/AndroidManifest.xml:17:9-33
	android:theme
		ADDED from /Users/inkg/Downloads/AndroidStudioProjects/cure/app/src/main/AndroidManifest.xml:19:9-40
	tools:replace
		ADDED from /Users/inkg/Downloads/AndroidStudioProjects/cure/app/src/main/AndroidManifest.xml:20:9-51
	android:name
		ADDED from /Users/inkg/Downloads/AndroidStudioProjects/cure/app/src/main/AndroidManifest.xml:12:9-50
meta-data#com.facebook.sdk.ApplicationId
ADDED from /Users/inkg/Downloads/AndroidStudioProjects/cure/app/src/main/AndroidManifest.xml:21:9-23:55
	android:value
		ADDED from /Users/inkg/Downloads/AndroidStudioProjects/cure/app/src/main/AndroidManifest.xml:23:13-52
	android:name
		ADDED from /Users/inkg/Downloads/AndroidStudioProjects/cure/app/src/main/AndroidManifest.xml:22:13-58
provider#com.facebook.FacebookContentProvider
ADDED from /Users/inkg/Downloads/AndroidStudioProjects/cure/app/src/main/AndroidManifest.xml:24:9-27:39
	android:authorities
		ADDED from /Users/inkg/Downloads/AndroidStudioProjects/cure/app/src/main/AndroidManifest.xml:26:13-90
	android:exported
		ADDED from /Users/inkg/Downloads/AndroidStudioProjects/cure/app/src/main/AndroidManifest.xml:27:13-36
	android:name
		ADDED from /Users/inkg/Downloads/AndroidStudioProjects/cure/app/src/main/AndroidManifest.xml:25:13-64
activity#com.facebook.CustomTabActivity
ADDED from /Users/inkg/Downloads/AndroidStudioProjects/cure/app/src/main/AndroidManifest.xml:29:9-40:20
	android:exported
		ADDED from /Users/inkg/Downloads/AndroidStudioProjects/cure/app/src/main/AndroidManifest.xml:31:13-36
	android:name
		ADDED from /Users/inkg/Downloads/AndroidStudioProjects/cure/app/src/main/AndroidManifest.xml:30:13-58
intent-filter#android.intent.action.VIEW+android.intent.category.BROWSABLE+android.intent.category.DEFAULT
ADDED from /Users/inkg/Downloads/AndroidStudioProjects/cure/app/src/main/AndroidManifest.xml:32:13-39:29
action#android.intent.action.VIEW
ADDED from /Users/inkg/Downloads/AndroidStudioProjects/cure/app/src/main/AndroidManifest.xml:33:17-69
	android:name
		ADDED from /Users/inkg/Downloads/AndroidStudioProjects/cure/app/src/main/AndroidManifest.xml:33:25-66
category#android.intent.category.DEFAULT
ADDED from /Users/inkg/Downloads/AndroidStudioProjects/cure/app/src/main/AndroidManifest.xml:35:17-76
	android:name
		ADDED from /Users/inkg/Downloads/AndroidStudioProjects/cure/app/src/main/AndroidManifest.xml:35:27-73
category#android.intent.category.BROWSABLE
ADDED from /Users/inkg/Downloads/AndroidStudioProjects/cure/app/src/main/AndroidManifest.xml:36:17-78
	android:name
		ADDED from /Users/inkg/Downloads/AndroidStudioProjects/cure/app/src/main/AndroidManifest.xml:36:27-75
data
ADDED from /Users/inkg/Downloads/AndroidStudioProjects/cure/app/src/main/AndroidManifest.xml:38:17-75
	android:scheme
		ADDED from /Users/inkg/Downloads/AndroidStudioProjects/cure/app/src/main/AndroidManifest.xml:38:23-72
activity#com.nhn.android.naverlogin.ui.OAuthLoginActivity
ADDED from /Users/inkg/Downloads/AndroidStudioProjects/cure/app/src/main/AndroidManifest.xml:41:9-43:75
	android:theme
		ADDED from /Users/inkg/Downloads/AndroidStudioProjects/cure/app/src/main/AndroidManifest.xml:43:13-72
	android:name
		ADDED from /Users/inkg/Downloads/AndroidStudioProjects/cure/app/src/main/AndroidManifest.xml:42:13-76
activity#com.nhn.android.naverlogin.ui.OAuthLoginInAppBrowserActivity
ADDED from /Users/inkg/Downloads/AndroidStudioProjects/cure/app/src/main/AndroidManifest.xml:44:9-46:47
	android:label
		ADDED from /Users/inkg/Downloads/AndroidStudioProjects/cure/app/src/main/AndroidManifest.xml:46:13-44
	android:name
		ADDED from /Users/inkg/Downloads/AndroidStudioProjects/cure/app/src/main/AndroidManifest.xml:45:13-88
meta-data#com.kakao.sdk.AppKey
ADDED from /Users/inkg/Downloads/AndroidStudioProjects/cure/app/src/main/AndroidManifest.xml:48:9-50:53
	android:value
		ADDED from /Users/inkg/Downloads/AndroidStudioProjects/cure/app/src/main/AndroidManifest.xml:50:13-50
	android:name
		ADDED from /Users/inkg/Downloads/AndroidStudioProjects/cure/app/src/main/AndroidManifest.xml:49:13-48
activity#com.kakao.auth.authorization.authcode.KakaoWebViewActivity
ADDED from /Users/inkg/Downloads/AndroidStudioProjects/cure/app/src/main/AndroidManifest.xml:52:9-61:20
MERGED from [com.kakao.sdk:auth:1.1.30] /Users/inkg/.android/build-cache/fcbd22f5923a3dc90fa4ec653bdbccb73eb89986/output/AndroidManifest.xml:12:9-22:20
	android:label
		ADDED from [com.kakao.sdk:auth:1.1.30] /Users/inkg/.android/build-cache/fcbd22f5923a3dc90fa4ec653bdbccb73eb89986/output/AndroidManifest.xml:14:13-59
	android:launchMode
		ADDED from /Users/inkg/Downloads/AndroidStudioProjects/cure/app/src/main/AndroidManifest.xml:54:13-43
	android:windowSoftInputMode
		ADDED from /Users/inkg/Downloads/AndroidStudioProjects/cure/app/src/main/AndroidManifest.xml:55:13-55
	android:name
		ADDED from /Users/inkg/Downloads/AndroidStudioProjects/cure/app/src/main/AndroidManifest.xml:53:13-86
intent-filter#android.intent.action.MAIN+android.intent.category.DEFAULT
ADDED from /Users/inkg/Downloads/AndroidStudioProjects/cure/app/src/main/AndroidManifest.xml:57:13-60:29
action#android.intent.action.MAIN
ADDED from /Users/inkg/Downloads/AndroidStudioProjects/cure/app/src/main/AndroidManifest.xml:58:17-69
	android:name
		ADDED from /Users/inkg/Downloads/AndroidStudioProjects/cure/app/src/main/AndroidManifest.xml:58:25-66
activity#com.inkg.cure.MainActivity
ADDED from /Users/inkg/Downloads/AndroidStudioProjects/cure/app/src/main/AndroidManifest.xml:63:9-71:20
	android:screenOrientation
		ADDED from /Users/inkg/Downloads/AndroidStudioProjects/cure/app/src/main/AndroidManifest.xml:65:13-49
	android:name
		ADDED from /Users/inkg/Downloads/AndroidStudioProjects/cure/app/src/main/AndroidManifest.xml:64:13-41
intent-filter#android.intent.action.MAIN+android.intent.category.LAUNCHER
ADDED from /Users/inkg/Downloads/AndroidStudioProjects/cure/app/src/main/AndroidManifest.xml:66:13-70:29
category#android.intent.category.LAUNCHER
ADDED from /Users/inkg/Downloads/AndroidStudioProjects/cure/app/src/main/AndroidManifest.xml:69:17-77
	android:name
		ADDED from /Users/inkg/Downloads/AndroidStudioProjects/cure/app/src/main/AndroidManifest.xml:69:27-74
activity#com.inkg.cure.AnotherLoginActivity
ADDED from /Users/inkg/Downloads/AndroidStudioProjects/cure/app/src/main/AndroidManifest.xml:73:9-75:52
	android:screenOrientation
		ADDED from /Users/inkg/Downloads/AndroidStudioProjects/cure/app/src/main/AndroidManifest.xml:75:13-49
	android:name
		ADDED from /Users/inkg/Downloads/AndroidStudioProjects/cure/app/src/main/AndroidManifest.xml:74:13-49
activity#com.inkg.cure.LoginActivity
ADDED from /Users/inkg/Downloads/AndroidStudioProjects/cure/app/src/main/AndroidManifest.xml:76:9-78:52
	android:screenOrientation
		ADDED from /Users/inkg/Downloads/AndroidStudioProjects/cure/app/src/main/AndroidManifest.xml:78:13-49
	android:name
		ADDED from /Users/inkg/Downloads/AndroidStudioProjects/cure/app/src/main/AndroidManifest.xml:77:13-42
activity#com.inkg.cure.JoinActivity
ADDED from /Users/inkg/Downloads/AndroidStudioProjects/cure/app/src/main/AndroidManifest.xml:79:9-81:52
	android:screenOrientation
		ADDED from /Users/inkg/Downloads/AndroidStudioProjects/cure/app/src/main/AndroidManifest.xml:81:13-49
	android:name
		ADDED from /Users/inkg/Downloads/AndroidStudioProjects/cure/app/src/main/AndroidManifest.xml:80:13-41
activity#com.inkg.cure.IntroActivity
ADDED from /Users/inkg/Downloads/AndroidStudioProjects/cure/app/src/main/AndroidManifest.xml:82:9-86:20
	android:screenOrientation
		ADDED from /Users/inkg/Downloads/AndroidStudioProjects/cure/app/src/main/AndroidManifest.xml:84:13-49
	android:name
		ADDED from /Users/inkg/Downloads/AndroidStudioProjects/cure/app/src/main/AndroidManifest.xml:83:13-42
activity#com.inkg.cure.SampleActivity
ADDED from /Users/inkg/Downloads/AndroidStudioProjects/cure/app/src/main/AndroidManifest.xml:87:9-91:59
	android:screenOrientation
		ADDED from /Users/inkg/Downloads/AndroidStudioProjects/cure/app/src/main/AndroidManifest.xml:90:13-49
	android:label
		ADDED from /Users/inkg/Downloads/AndroidStudioProjects/cure/app/src/main/AndroidManifest.xml:89:13-58
	android:theme
		ADDED from /Users/inkg/Downloads/AndroidStudioProjects/cure/app/src/main/AndroidManifest.xml:91:13-56
	android:name
		ADDED from /Users/inkg/Downloads/AndroidStudioProjects/cure/app/src/main/AndroidManifest.xml:88:13-43
activity#com.inkg.cure.search.SearchActivity
ADDED from /Users/inkg/Downloads/AndroidStudioProjects/cure/app/src/main/AndroidManifest.xml:92:9-94:52
	android:screenOrientation
		ADDED from /Users/inkg/Downloads/AndroidStudioProjects/cure/app/src/main/AndroidManifest.xml:94:13-49
	android:name
		ADDED from /Users/inkg/Downloads/AndroidStudioProjects/cure/app/src/main/AndroidManifest.xml:93:13-50
activity#com.inkg.cure.IngrCategory1Activity
ADDED from /Users/inkg/Downloads/AndroidStudioProjects/cure/app/src/main/AndroidManifest.xml:95:9-97:52
	android:screenOrientation
		ADDED from /Users/inkg/Downloads/AndroidStudioProjects/cure/app/src/main/AndroidManifest.xml:97:13-49
	android:name
		ADDED from /Users/inkg/Downloads/AndroidStudioProjects/cure/app/src/main/AndroidManifest.xml:96:13-50
activity#com.inkg.cure.IngrCategory2Activity
ADDED from /Users/inkg/Downloads/AndroidStudioProjects/cure/app/src/main/AndroidManifest.xml:98:9-100:52
	android:screenOrientation
		ADDED from /Users/inkg/Downloads/AndroidStudioProjects/cure/app/src/main/AndroidManifest.xml:100:13-49
	android:name
		ADDED from /Users/inkg/Downloads/AndroidStudioProjects/cure/app/src/main/AndroidManifest.xml:99:13-50
activity#com.inkg.cure.IngrCategory3Activity
ADDED from /Users/inkg/Downloads/AndroidStudioProjects/cure/app/src/main/AndroidManifest.xml:101:9-103:52
	android:screenOrientation
		ADDED from /Users/inkg/Downloads/AndroidStudioProjects/cure/app/src/main/AndroidManifest.xml:103:13-49
	android:name
		ADDED from /Users/inkg/Downloads/AndroidStudioProjects/cure/app/src/main/AndroidManifest.xml:102:13-50
activity#com.inkg.cure.mypage.MypageActivity
ADDED from /Users/inkg/Downloads/AndroidStudioProjects/cure/app/src/main/AndroidManifest.xml:104:9-106:52
	android:screenOrientation
		ADDED from /Users/inkg/Downloads/AndroidStudioProjects/cure/app/src/main/AndroidManifest.xml:106:13-49
	android:name
		ADDED from /Users/inkg/Downloads/AndroidStudioProjects/cure/app/src/main/AndroidManifest.xml:105:13-50
activity#com.inkg.cure.SettingActivity
ADDED from /Users/inkg/Downloads/AndroidStudioProjects/cure/app/src/main/AndroidManifest.xml:107:9-109:52
	android:screenOrientation
		ADDED from /Users/inkg/Downloads/AndroidStudioProjects/cure/app/src/main/AndroidManifest.xml:109:13-49
	android:name
		ADDED from /Users/inkg/Downloads/AndroidStudioProjects/cure/app/src/main/AndroidManifest.xml:108:13-44
activity#com.inkg.cure.search.MedicineDetailActivity
ADDED from /Users/inkg/Downloads/AndroidStudioProjects/cure/app/src/main/AndroidManifest.xml:110:9-112:52
	android:screenOrientation
		ADDED from /Users/inkg/Downloads/AndroidStudioProjects/cure/app/src/main/AndroidManifest.xml:112:13-49
	android:name
		ADDED from /Users/inkg/Downloads/AndroidStudioProjects/cure/app/src/main/AndroidManifest.xml:111:13-58
activity#com.inkg.cure.search.HealthfoodDetailActivity
ADDED from /Users/inkg/Downloads/AndroidStudioProjects/cure/app/src/main/AndroidManifest.xml:113:9-115:52
	android:screenOrientation
		ADDED from /Users/inkg/Downloads/AndroidStudioProjects/cure/app/src/main/AndroidManifest.xml:115:13-49
	android:name
		ADDED from /Users/inkg/Downloads/AndroidStudioProjects/cure/app/src/main/AndroidManifest.xml:114:13-60
activity#com.inkg.cure.shopping.PriceDetailActivity
ADDED from /Users/inkg/Downloads/AndroidStudioProjects/cure/app/src/main/AndroidManifest.xml:116:9-118:52
	android:screenOrientation
		ADDED from /Users/inkg/Downloads/AndroidStudioProjects/cure/app/src/main/AndroidManifest.xml:118:13-49
	android:name
		ADDED from /Users/inkg/Downloads/AndroidStudioProjects/cure/app/src/main/AndroidManifest.xml:117:13-57
activity#com.inkg.cure.shopping.ShoppingMainActivity
ADDED from /Users/inkg/Downloads/AndroidStudioProjects/cure/app/src/main/AndroidManifest.xml:119:9-121:52
	android:screenOrientation
		ADDED from /Users/inkg/Downloads/AndroidStudioProjects/cure/app/src/main/AndroidManifest.xml:121:13-49
	android:name
		ADDED from /Users/inkg/Downloads/AndroidStudioProjects/cure/app/src/main/AndroidManifest.xml:120:13-58
activity#com.inkg.cure.KakaoSignupActivity
ADDED from /Users/inkg/Downloads/AndroidStudioProjects/cure/app/src/main/AndroidManifest.xml:122:9-124:52
	android:screenOrientation
		ADDED from /Users/inkg/Downloads/AndroidStudioProjects/cure/app/src/main/AndroidManifest.xml:124:13-49
	android:name
		ADDED from /Users/inkg/Downloads/AndroidStudioProjects/cure/app/src/main/AndroidManifest.xml:123:13-48
activity#com.inkg.cure.settings.EULAActivity
ADDED from /Users/inkg/Downloads/AndroidStudioProjects/cure/app/src/main/AndroidManifest.xml:125:9-127:52
	android:screenOrientation
		ADDED from /Users/inkg/Downloads/AndroidStudioProjects/cure/app/src/main/AndroidManifest.xml:127:13-49
	android:name
		ADDED from /Users/inkg/Downloads/AndroidStudioProjects/cure/app/src/main/AndroidManifest.xml:126:13-50
activity#com.inkg.cure.search.CategorySearchActivity
ADDED from /Users/inkg/Downloads/AndroidStudioProjects/cure/app/src/main/AndroidManifest.xml:128:9-130:52
	android:screenOrientation
		ADDED from /Users/inkg/Downloads/AndroidStudioProjects/cure/app/src/main/AndroidManifest.xml:130:13-49
	android:name
		ADDED from /Users/inkg/Downloads/AndroidStudioProjects/cure/app/src/main/AndroidManifest.xml:129:13-58
activity#com.inkg.cure.search.SearchResultActivity
ADDED from /Users/inkg/Downloads/AndroidStudioProjects/cure/app/src/main/AndroidManifest.xml:131:9-133:52
	android:screenOrientation
		ADDED from /Users/inkg/Downloads/AndroidStudioProjects/cure/app/src/main/AndroidManifest.xml:133:13-49
	android:name
		ADDED from /Users/inkg/Downloads/AndroidStudioProjects/cure/app/src/main/AndroidManifest.xml:132:13-56
activity#com.inkg.cure.search.ComponentNormalActivity
ADDED from /Users/inkg/Downloads/AndroidStudioProjects/cure/app/src/main/AndroidManifest.xml:134:9-136:52
	android:screenOrientation
		ADDED from /Users/inkg/Downloads/AndroidStudioProjects/cure/app/src/main/AndroidManifest.xml:136:13-49
	android:name
		ADDED from /Users/inkg/Downloads/AndroidStudioProjects/cure/app/src/main/AndroidManifest.xml:135:13-59
activity#com.inkg.cure.search.ComponentHealthActivity
ADDED from /Users/inkg/Downloads/AndroidStudioProjects/cure/app/src/main/AndroidManifest.xml:137:9-139:52
	android:screenOrientation
		ADDED from /Users/inkg/Downloads/AndroidStudioProjects/cure/app/src/main/AndroidManifest.xml:139:13-49
	android:name
		ADDED from /Users/inkg/Downloads/AndroidStudioProjects/cure/app/src/main/AndroidManifest.xml:138:13-59
activity#com.inkg.cure.review.EditActivity
ADDED from /Users/inkg/Downloads/AndroidStudioProjects/cure/app/src/main/AndroidManifest.xml:140:9-142:52
	android:screenOrientation
		ADDED from /Users/inkg/Downloads/AndroidStudioProjects/cure/app/src/main/AndroidManifest.xml:142:13-49
	android:name
		ADDED from /Users/inkg/Downloads/AndroidStudioProjects/cure/app/src/main/AndroidManifest.xml:141:13-48
activity#com.inkg.cure.review.AddActivity
ADDED from /Users/inkg/Downloads/AndroidStudioProjects/cure/app/src/main/AndroidManifest.xml:143:9-145:52
	android:screenOrientation
		ADDED from /Users/inkg/Downloads/AndroidStudioProjects/cure/app/src/main/AndroidManifest.xml:145:13-49
	android:name
		ADDED from /Users/inkg/Downloads/AndroidStudioProjects/cure/app/src/main/AndroidManifest.xml:144:13-47
activity#com.inkg.cure.review.WriteActivity
ADDED from /Users/inkg/Downloads/AndroidStudioProjects/cure/app/src/main/AndroidManifest.xml:146:9-148:52
	android:screenOrientation
		ADDED from /Users/inkg/Downloads/AndroidStudioProjects/cure/app/src/main/AndroidManifest.xml:148:13-49
	android:name
		ADDED from /Users/inkg/Downloads/AndroidStudioProjects/cure/app/src/main/AndroidManifest.xml:147:13-49
activity#com.inkg.cure.review.ReadActivity
ADDED from /Users/inkg/Downloads/AndroidStudioProjects/cure/app/src/main/AndroidManifest.xml:149:9-151:52
	android:screenOrientation
		ADDED from /Users/inkg/Downloads/AndroidStudioProjects/cure/app/src/main/AndroidManifest.xml:151:13-49
	android:name
		ADDED from /Users/inkg/Downloads/AndroidStudioProjects/cure/app/src/main/AndroidManifest.xml:150:13-48
activity#com.inkg.cure.review.ReviewDetailActivity
ADDED from /Users/inkg/Downloads/AndroidStudioProjects/cure/app/src/main/AndroidManifest.xml:152:9-154:52
	android:screenOrientation
		ADDED from /Users/inkg/Downloads/AndroidStudioProjects/cure/app/src/main/AndroidManifest.xml:154:13-49
	android:name
		ADDED from /Users/inkg/Downloads/AndroidStudioProjects/cure/app/src/main/AndroidManifest.xml:153:13-56
activity#com.inkg.cure.NearPharmacyActivity
ADDED from /Users/inkg/Downloads/AndroidStudioProjects/cure/app/src/main/AndroidManifest.xml:155:9-157:52
	android:screenOrientation
		ADDED from /Users/inkg/Downloads/AndroidStudioProjects/cure/app/src/main/AndroidManifest.xml:157:13-49
	android:name
		ADDED from /Users/inkg/Downloads/AndroidStudioProjects/cure/app/src/main/AndroidManifest.xml:156:13-49
activity#com.inkg.cure.settings.AllianceActivity
ADDED from /Users/inkg/Downloads/AndroidStudioProjects/cure/app/src/main/AndroidManifest.xml:158:9-160:52
	android:screenOrientation
		ADDED from /Users/inkg/Downloads/AndroidStudioProjects/cure/app/src/main/AndroidManifest.xml:160:13-49
	android:name
		ADDED from /Users/inkg/Downloads/AndroidStudioProjects/cure/app/src/main/AndroidManifest.xml:159:13-54
activity#com.inkg.cure.settings.AskActivity
ADDED from /Users/inkg/Downloads/AndroidStudioProjects/cure/app/src/main/AndroidManifest.xml:161:9-163:52
	android:screenOrientation
		ADDED from /Users/inkg/Downloads/AndroidStudioProjects/cure/app/src/main/AndroidManifest.xml:163:13-49
	android:name
		ADDED from /Users/inkg/Downloads/AndroidStudioProjects/cure/app/src/main/AndroidManifest.xml:162:13-49
activity#com.inkg.cure.mypage.MyFollowerActivity
ADDED from /Users/inkg/Downloads/AndroidStudioProjects/cure/app/src/main/AndroidManifest.xml:164:9-166:52
	android:screenOrientation
		ADDED from /Users/inkg/Downloads/AndroidStudioProjects/cure/app/src/main/AndroidManifest.xml:166:13-49
	android:name
		ADDED from /Users/inkg/Downloads/AndroidStudioProjects/cure/app/src/main/AndroidManifest.xml:165:13-54
activity#com.inkg.cure.mypage.MyFollowingActivity
ADDED from /Users/inkg/Downloads/AndroidStudioProjects/cure/app/src/main/AndroidManifest.xml:167:9-169:52
	android:screenOrientation
		ADDED from /Users/inkg/Downloads/AndroidStudioProjects/cure/app/src/main/AndroidManifest.xml:169:13-49
	android:name
		ADDED from /Users/inkg/Downloads/AndroidStudioProjects/cure/app/src/main/AndroidManifest.xml:168:13-55
activity#com.inkg.cure.mypage.MyIngredientActivity
ADDED from /Users/inkg/Downloads/AndroidStudioProjects/cure/app/src/main/AndroidManifest.xml:170:9-172:52
	android:screenOrientation
		ADDED from /Users/inkg/Downloads/AndroidStudioProjects/cure/app/src/main/AndroidManifest.xml:172:13-49
	android:name
		ADDED from /Users/inkg/Downloads/AndroidStudioProjects/cure/app/src/main/AndroidManifest.xml:171:13-56
activity#com.inkg.cure.mypage.MyPharmacyActivity
ADDED from /Users/inkg/Downloads/AndroidStudioProjects/cure/app/src/main/AndroidManifest.xml:173:9-175:52
	android:screenOrientation
		ADDED from /Users/inkg/Downloads/AndroidStudioProjects/cure/app/src/main/AndroidManifest.xml:175:13-49
	android:name
		ADDED from /Users/inkg/Downloads/AndroidStudioProjects/cure/app/src/main/AndroidManifest.xml:174:13-54
activity#com.inkg.cure.mypage.MyProductActivity
ADDED from /Users/inkg/Downloads/AndroidStudioProjects/cure/app/src/main/AndroidManifest.xml:176:9-178:52
	android:screenOrientation
		ADDED from /Users/inkg/Downloads/AndroidStudioProjects/cure/app/src/main/AndroidManifest.xml:178:13-49
	android:name
		ADDED from /Users/inkg/Downloads/AndroidStudioProjects/cure/app/src/main/AndroidManifest.xml:177:13-53
activity#com.inkg.cure.mypage.MyProfileActivity
ADDED from /Users/inkg/Downloads/AndroidStudioProjects/cure/app/src/main/AndroidManifest.xml:179:9-181:52
	android:screenOrientation
		ADDED from /Users/inkg/Downloads/AndroidStudioProjects/cure/app/src/main/AndroidManifest.xml:181:13-49
	android:name
		ADDED from /Users/inkg/Downloads/AndroidStudioProjects/cure/app/src/main/AndroidManifest.xml:180:13-53
activity#com.inkg.cure.mypage.MyRequestActivity
ADDED from /Users/inkg/Downloads/AndroidStudioProjects/cure/app/src/main/AndroidManifest.xml:182:9-184:52
	android:screenOrientation
		ADDED from /Users/inkg/Downloads/AndroidStudioProjects/cure/app/src/main/AndroidManifest.xml:184:13-49
	android:name
		ADDED from /Users/inkg/Downloads/AndroidStudioProjects/cure/app/src/main/AndroidManifest.xml:183:13-53
activity#com.inkg.cure.mypage.MyReviewActivity
ADDED from /Users/inkg/Downloads/AndroidStudioProjects/cure/app/src/main/AndroidManifest.xml:185:9-187:52
	android:screenOrientation
		ADDED from /Users/inkg/Downloads/AndroidStudioProjects/cure/app/src/main/AndroidManifest.xml:187:13-49
	android:name
		ADDED from /Users/inkg/Downloads/AndroidStudioProjects/cure/app/src/main/AndroidManifest.xml:186:13-52
activity#com.inkg.cure.mypage.MyScrapActivity
ADDED from /Users/inkg/Downloads/AndroidStudioProjects/cure/app/src/main/AndroidManifest.xml:188:9-190:52
	android:screenOrientation
		ADDED from /Users/inkg/Downloads/AndroidStudioProjects/cure/app/src/main/AndroidManifest.xml:190:13-49
	android:name
		ADDED from /Users/inkg/Downloads/AndroidStudioProjects/cure/app/src/main/AndroidManifest.xml:189:13-51
activity#com.inkg.cure.shopping.NaverShoppingActivity
ADDED from /Users/inkg/Downloads/AndroidStudioProjects/cure/app/src/main/AndroidManifest.xml:191:9-193:52
	android:screenOrientation
		ADDED from /Users/inkg/Downloads/AndroidStudioProjects/cure/app/src/main/AndroidManifest.xml:193:13-49
	android:name
		ADDED from /Users/inkg/Downloads/AndroidStudioProjects/cure/app/src/main/AndroidManifest.xml:192:13-59
activity#com.inkg.cure.mypage.MyNotificationActivity
ADDED from /Users/inkg/Downloads/AndroidStudioProjects/cure/app/src/main/AndroidManifest.xml:194:9-196:52
	android:screenOrientation
		ADDED from /Users/inkg/Downloads/AndroidStudioProjects/cure/app/src/main/AndroidManifest.xml:196:13-49
	android:name
		ADDED from /Users/inkg/Downloads/AndroidStudioProjects/cure/app/src/main/AndroidManifest.xml:195:13-58
activity#com.inkg.cure.mypage.NotificationActivity
ADDED from /Users/inkg/Downloads/AndroidStudioProjects/cure/app/src/main/AndroidManifest.xml:197:9-199:52
	android:screenOrientation
		ADDED from /Users/inkg/Downloads/AndroidStudioProjects/cure/app/src/main/AndroidManifest.xml:199:13-49
	android:name
		ADDED from /Users/inkg/Downloads/AndroidStudioProjects/cure/app/src/main/AndroidManifest.xml:198:13-56
activity#com.inkg.cure.share.FacebookShareActivity
ADDED from /Users/inkg/Downloads/AndroidStudioProjects/cure/app/src/main/AndroidManifest.xml:200:9-202:52
	android:screenOrientation
		ADDED from /Users/inkg/Downloads/AndroidStudioProjects/cure/app/src/main/AndroidManifest.xml:202:13-49
	android:name
		ADDED from /Users/inkg/Downloads/AndroidStudioProjects/cure/app/src/main/AndroidManifest.xml:201:13-56
activity#com.inkg.cure.share.KaKaoTalkShareActivity
ADDED from /Users/inkg/Downloads/AndroidStudioProjects/cure/app/src/main/AndroidManifest.xml:203:9-216:20
	android:screenOrientation
		ADDED from /Users/inkg/Downloads/AndroidStudioProjects/cure/app/src/main/AndroidManifest.xml:205:13-49
	android:name
		ADDED from /Users/inkg/Downloads/AndroidStudioProjects/cure/app/src/main/AndroidManifest.xml:204:13-57
activity#com.inkg.cure.search.ImageActivity
ADDED from /Users/inkg/Downloads/AndroidStudioProjects/cure/app/src/main/AndroidManifest.xml:217:9-219:52
	android:screenOrientation
		ADDED from /Users/inkg/Downloads/AndroidStudioProjects/cure/app/src/main/AndroidManifest.xml:219:13-49
	android:name
		ADDED from /Users/inkg/Downloads/AndroidStudioProjects/cure/app/src/main/AndroidManifest.xml:218:13-49
activity#com.inkg.cure.DurActivity
ADDED from /Users/inkg/Downloads/AndroidStudioProjects/cure/app/src/main/AndroidManifest.xml:220:9-222:52
	android:screenOrientation
		ADDED from /Users/inkg/Downloads/AndroidStudioProjects/cure/app/src/main/AndroidManifest.xml:222:13-49
	android:name
		ADDED from /Users/inkg/Downloads/AndroidStudioProjects/cure/app/src/main/AndroidManifest.xml:221:13-40
service#com.inkg.cure.fcm.MyFirebaseMessagingService
ADDED from /Users/inkg/Downloads/AndroidStudioProjects/cure/app/src/main/AndroidManifest.xml:224:9-228:19
	android:name
		ADDED from /Users/inkg/Downloads/AndroidStudioProjects/cure/app/src/main/AndroidManifest.xml:224:18-64
intent-filter#com.google.firebase.MESSAGING_EVENT
ADDED from /Users/inkg/Downloads/AndroidStudioProjects/cure/app/src/main/AndroidManifest.xml:225:13-227:29
action#com.google.firebase.MESSAGING_EVENT
ADDED from /Users/inkg/Downloads/AndroidStudioProjects/cure/app/src/main/AndroidManifest.xml:226:17-78
	android:name
		ADDED from /Users/inkg/Downloads/AndroidStudioProjects/cure/app/src/main/AndroidManifest.xml:226:25-75
service#com.inkg.cure.fcm.MyFirebaseInstanceIDService
ADDED from /Users/inkg/Downloads/AndroidStudioProjects/cure/app/src/main/AndroidManifest.xml:229:9-233:19
	android:name
		ADDED from /Users/inkg/Downloads/AndroidStudioProjects/cure/app/src/main/AndroidManifest.xml:229:18-65
intent-filter#com.google.firebase.INSTANCE_ID_EVENT
ADDED from /Users/inkg/Downloads/AndroidStudioProjects/cure/app/src/main/AndroidManifest.xml:230:13-232:29
action#com.google.firebase.INSTANCE_ID_EVENT
ADDED from /Users/inkg/Downloads/AndroidStudioProjects/cure/app/src/main/AndroidManifest.xml:231:17-80
	android:name
		ADDED from /Users/inkg/Downloads/AndroidStudioProjects/cure/app/src/main/AndroidManifest.xml:231:25-77
uses-sdk
INJECTED from /Users/inkg/Downloads/AndroidStudioProjects/cure/app/src/main/AndroidManifest.xml reason: use-sdk injection requested
MERGED from [com.android.support:design:25.0.0] /Users/inkg/.android/build-cache/0910b8cf49615cc0c9f7e7ff7a12e58cd0fc5f3b/output/AndroidManifest.xml:21:5-23:62
MERGED from [com.android.support:recyclerview-v7:25.0.0] /Users/inkg/.android/build-cache/cdf2515a497808b7656a4be671e52427b9f36d57/output/AndroidManifest.xml:20:5-43
MERGED from [com.android.support:transition:25.0.0] /Users/inkg/.android/build-cache/221d7c35ffc4d39c552547ac1284da03a11d506a/output/AndroidManifest.xml:20:5-44
MERGED from [com.facebook.android:facebook-android-sdk:4.20.0] /Users/inkg/.android/build-cache/dde8ae7dec1239f8df56a1c691404af47359be9e/output/AndroidManifest.xml:24:5-26:41
MERGED from [com.android.support:cardview-v7:25.0.0] /Users/inkg/.android/build-cache/b90a8fc6505cca3965fee9f2f198d271203d5c60/output/AndroidManifest.xml:20:5-43
MERGED from [com.android.support:customtabs:25.0.0] /Users/inkg/.android/build-cache/311eef7edeb95ddd806900a364be852bc4582839/output/AndroidManifest.xml:20:5-44
MERGED from [com.google.android.gms:play-services:10.0.1] /Users/inkg/.android/build-cache/360dd1597923fb0711600de9c99e43c0b15a9f3d/output/AndroidManifest.xml:4:5-42
MERGED from [com.google.android.gms:play-services-ads:10.0.1] /Users/inkg/.android/build-cache/80423f998cbe2439ef7fe04363bcec40a0f7185e/output/AndroidManifest.xml:17:5-42
MERGED from [com.google.android.gms:play-services-ads-lite:10.0.1] /Users/inkg/.android/build-cache/9bde6462b39cd977fa2028eab51f9270d14d7c09/output/AndroidManifest.xml:22:5-42
MERGED from [com.google.android.gms:play-services-analytics:10.0.1] /Users/inkg/.android/build-cache/53c6afc4ef4d19c7265fa1b756b91e5f5c559549/output/AndroidManifest.xml:17:5-42
MERGED from [com.google.android.gms:play-services-appinvite:10.0.1] /Users/inkg/.android/build-cache/76915d3e6158266326afb2ecf6e3164a0bdc5a88/output/AndroidManifest.xml:17:5-42
MERGED from [com.google.android.gms:play-services-auth:10.0.1] /Users/inkg/.android/build-cache/9f8a74225df025fd45009570616517873d798436/output/AndroidManifest.xml:17:5-42
MERGED from [com.google.android.gms:play-services-auth-base:10.0.1] /Users/inkg/.android/build-cache/5003ab05f8e0e6b5c7edc5acf7773dafefe8130c/output/AndroidManifest.xml:4:5-42
MERGED from [com.google.android.gms:play-services-cast-framework:10.0.1] /Users/inkg/.android/build-cache/0fb74694bbd38bc5a47743a263b0322223a66fee/output/AndroidManifest.xml:3:5-42
MERGED from [com.google.android.gms:play-services-cast:10.0.1] /Users/inkg/.android/build-cache/e5b3232d3e03c3d3cf0e5bcc6d99b42c068a931f/output/AndroidManifest.xml:17:5-42
MERGED from [com.android.support:mediarouter-v7:24.0.0] /Users/inkg/.android/build-cache/eed9058d7aa7b168a91d049f7c3bc1aa511fccd4/output/AndroidManifest.xml:20:5-43
MERGED from [com.android.support:palette-v7:24.0.0] /Users/inkg/.android/build-cache/cf464aebcfcf309d43a0507ad69325b234428212/output/AndroidManifest.xml:20:5-43
MERGED from [com.google.android.gms:play-services-clearcut:10.0.1] /Users/inkg/.android/build-cache/685208502b15f0907bc8ae4b2b3334b2a134ba8c/output/AndroidManifest.xml:17:5-42
MERGED from [com.google.firebase:firebase-config:10.0.1] /Users/inkg/.android/build-cache/8ceec8f61e5afafbab40197163e21ffa1f34c08b/output/AndroidManifest.xml:17:5-42
MERGED from [com.google.android.gms:play-services-awareness:10.0.1] /Users/inkg/.android/build-cache/68dbc3554c35c541109418588778ad865dd8e8af/output/AndroidManifest.xml:17:5-42
MERGED from [com.google.firebase:firebase-crash:10.0.1] /Users/inkg/.android/build-cache/8ff4c8fa52b526273117f707daa78cc5af6e0257/output/AndroidManifest.xml:20:5-42
MERGED from [com.google.firebase:firebase-auth:10.0.1] /Users/inkg/.android/build-cache/c957e49492b3f619a45541b46589e541a9f5964c/output/AndroidManifest.xml:17:5-42
MERGED from [com.google.firebase:firebase-database:10.0.1] /Users/inkg/.android/build-cache/082338e3f67212b0a5769fef4425dacbeb1df85b/output/AndroidManifest.xml:3:5-42
MERGED from [com.google.firebase:firebase-database-connection:10.0.1] /Users/inkg/.android/build-cache/c98246352f5d2d1e576dcf0f28c4a3889841ddc9/output/AndroidManifest.xml:3:5-42
MERGED from [com.google.firebase:firebase-storage:10.0.1] /Users/inkg/.android/build-cache/e2d3dc8bd0dc3be759634b6bb31c705aed3d5e02/output/AndroidManifest.xml:3:5-42
MERGED from [com.google.firebase:firebase-storage-common:10.0.1] /Users/inkg/.android/build-cache/3afb7fac49a66193e05b062313619197f07145a2/output/AndroidManifest.xml:3:5-42
MERGED from [com.google.android.gms:play-services-fitness:10.0.1] /Users/inkg/.android/build-cache/34f4c8bcb5ef7091b1a085b178ca334236ae9fb5/output/AndroidManifest.xml:17:5-42
MERGED from [com.google.android.gms:play-services-games:10.0.1] /Users/inkg/.android/build-cache/03097dccac5cf9296f082789214c1746e021fc3b/output/AndroidManifest.xml:17:5-42
MERGED from [com.google.android.gms:play-services-drive:10.0.1] /Users/inkg/.android/build-cache/cc3445ab9c6e805e1515313b5202717a8e268e49/output/AndroidManifest.xml:17:5-42
MERGED from [com.google.android.gms:play-services-gass:10.0.1] /Users/inkg/.android/build-cache/a15f9b9b3d6bf2e9192b8179aaf31e512a72b1fd/output/AndroidManifest.xml:3:5-42
MERGED from [com.google.firebase:firebase-appindexing:10.0.1] /Users/inkg/.android/build-cache/c344e9e882ad9e62cac5a951bc6fb2e4f0651a51/output/AndroidManifest.xml:17:5-42
MERGED from [com.google.android.gms:play-services-instantapps:10.0.1] /Users/inkg/.android/build-cache/4e428650fd8d21c6f7188db443054b86f43da924/output/AndroidManifest.xml:3:5-42
MERGED from [com.google.android.gms:play-services-nearby:10.0.1] /Users/inkg/.android/build-cache/d0779a03fbc948f8db8824b370ae2e53fa17326c/output/AndroidManifest.xml:3:5-42
MERGED from [com.google.android.gms:play-services-panorama:10.0.1] /Users/inkg/.android/build-cache/7539815089bbf7a249d69825392d22de783fba19/output/AndroidManifest.xml:17:5-42
MERGED from [com.google.android.gms:play-services-places:10.0.1] /Users/inkg/.android/build-cache/02be4b9a191dd105308cd7cf4424d13b71c72f68/output/AndroidManifest.xml:17:5-42
MERGED from [com.google.android.gms:play-services-plus:10.0.1] /Users/inkg/.android/build-cache/ecf3a782291e2e33be765661092c38e1d50a9e96/output/AndroidManifest.xml:17:5-42
MERGED from [com.google.android.gms:play-services-safetynet:10.0.1] /Users/inkg/.android/build-cache/0a6dc7dc3e40438550b5b1ed3183eece2871c0b5/output/AndroidManifest.xml:17:5-42
MERGED from [com.google.android.gms:play-services-tagmanager:10.0.1] /Users/inkg/.android/build-cache/8993ef37cee4f4fb35527e061fdbb21ad41eb913/output/AndroidManifest.xml:17:5-42
MERGED from [com.google.android.gms:play-services-tagmanager-api:10.0.1] /Users/inkg/.android/build-cache/e21168f0beefdede07a4e3243c828b1e0ee49733/output/AndroidManifest.xml:17:5-42
MERGED from [com.google.android.gms:play-services-tagmanager-v4-impl:10.0.1] /Users/inkg/.android/build-cache/a785d92313e9effaaf1234908eccd8da4714b2b1/output/AndroidManifest.xml:17:5-42
MERGED from [com.google.android.gms:play-services-analytics-impl:10.0.1] /Users/inkg/.android/build-cache/13cbd319922e25cb3052fbb86ba797b2ef210da8/output/AndroidManifest.xml:17:5-42
MERGED from [com.google.android.gms:play-services-vision:10.0.1] /Users/inkg/.android/build-cache/af675200d4226b7fd5dc5243dc36b450552af396/output/AndroidManifest.xml:3:5-42
MERGED from [com.google.android.gms:play-services-wallet:10.0.1] /Users/inkg/.android/build-cache/49d0c66ddaef7ac5b7de2d83392f75f49ec17415/output/AndroidManifest.xml:18:5-42
MERGED from [com.google.android.gms:play-services-identity:10.0.1] /Users/inkg/.android/build-cache/b914d65c69b292581f3e3e29abb771854c1460c6/output/AndroidManifest.xml:17:5-42
MERGED from [com.google.android.gms:play-services-maps:10.0.1] /Users/inkg/.android/build-cache/dbc1faa1e282ad350110366d28c16fc3ec824940/output/AndroidManifest.xml:23:5-42
MERGED from [com.google.android.gms:play-services-wearable:10.0.1] /Users/inkg/.android/build-cache/d3cac2b48358b2e0b84dfcfcdef3fd652703c2de/output/AndroidManifest.xml:17:5-42
MERGED from [com.google.android.gms:play-services-location:10.0.1] /Users/inkg/.android/build-cache/39fcbb427d1de248a39a55d9b5bee16e2150e72a/output/AndroidManifest.xml:3:5-42
MERGED from [pl.droidsonroids.gif:android-gif-drawable:1.2.3] /Users/inkg/.android/build-cache/f221a5ed4ac8ca601dcdce6bf784934558dbdb8f/output/AndroidManifest.xml:7:5-9:41
MERGED from [com.kakao.sdk:kakaolink:1.1.30] /Users/inkg/.android/build-cache/9cd229762a1b73ff1d1dbb8f5390da27f105b662/output/AndroidManifest.xml:11:5-13:41
MERGED from [com.kakao.sdk:kakaostory:1.1.30] /Users/inkg/.android/build-cache/3cb646e852235d3e40691cb3b30bceb437a56627/output/AndroidManifest.xml:11:5-13:41
MERGED from [com.kakao.sdk:kakaotalk:1.1.30] /Users/inkg/.android/build-cache/91aa156d737273a38ea6f78ebe1937a23c0a02d4/output/AndroidManifest.xml:11:5-13:41
MERGED from [com.kakao.sdk:friends:1.1.30] /Users/inkg/.android/build-cache/b2fa562c6caed6f78e78bf6519012307403639cd/output/AndroidManifest.xml:8:5-10:41
MERGED from [com.kakao.sdk:push:1.1.30] /Users/inkg/.android/build-cache/0f220e0c4061d7f6215c57b190217e8e74f7197e/output/AndroidManifest.xml:11:5-13:41
MERGED from [com.google.android.gms:play-services-gcm:10.0.1] /Users/inkg/.android/build-cache/4e79801b681974c2f1d626746f2ef7bd2f998dcc/output/AndroidManifest.xml:17:5-42
MERGED from [com.google.android.gms:play-services-iid:10.0.1] /Users/inkg/.android/build-cache/dfc1ff7203ce8d23b9092804a27681293439777b/output/AndroidManifest.xml:17:5-42
MERGED from [com.google.android.gms:play-services-base:10.0.1] /Users/inkg/.android/build-cache/4a4b54de7de921bc0ac5379b05cbce49c1bd7389/output/AndroidManifest.xml:17:5-42
MERGED from [com.kakao.sdk:usermgmt:1.1.30] /Users/inkg/.android/build-cache/dbf40bb77b1e2d30a49440973bf077e785f6b266/output/AndroidManifest.xml:11:5-13:41
MERGED from [com.kakao.sdk:auth:1.1.30] /Users/inkg/.android/build-cache/fcbd22f5923a3dc90fa4ec653bdbccb73eb89986/output/AndroidManifest.xml:7:5-9:41
MERGED from [com.kakao.sdk:network:1.1.30] /Users/inkg/.android/build-cache/e3d3558ad366ac579be457f4956ca8b19b590401/output/AndroidManifest.xml:8:5-10:41
MERGED from [com.kakao.sdk:util:1.1.30] /Users/inkg/.android/build-cache/10ea031f5002a2dde46676b4bed5d5f9feda1cff/output/AndroidManifest.xml:11:5-13:41
MERGED from [gun0912.ted:tedpermission:1.0.2] /Users/inkg/.android/build-cache/86c0dd72c4b55044c73b091dea782ccd5f7d0fb9/output/AndroidManifest.xml:5:5-7:41
MERGED from [com.android.support:appcompat-v7:25.0.0] /Users/inkg/.android/build-cache/664913ce647c97dd85de7f4dc72d91a99ba95e39/output/AndroidManifest.xml:21:5-23:78
MERGED from [com.android.support:animated-vector-drawable:25.0.0] /Users/inkg/.android/build-cache/aeb450a4a9f31821f4f7531df08069068431b4ee/output/AndroidManifest.xml:20:5-44
MERGED from [com.android.support:support-vector-drawable:25.0.0] /Users/inkg/.android/build-cache/bdcc866c98b9298032606f59ece25b5312b451ad/output/AndroidManifest.xml:21:5-43
MERGED from [com.google.firebase:firebase-core:10.0.1] /Users/inkg/.android/build-cache/03ebbc785e3d69c0829bf0ce20004135f9a5ae27/output/AndroidManifest.xml:4:5-42
MERGED from [com.google.firebase:firebase-analytics:10.0.1] /Users/inkg/.android/build-cache/432cc389c163af1aa8bb9ee27a882e4768e036ad/output/AndroidManifest.xml:17:5-42
MERGED from [com.google.firebase:firebase-analytics-impl:10.0.1] /Users/inkg/.android/build-cache/dc72a121259a6b1f9a5110cc11cbd1883ac38b04/output/AndroidManifest.xml:17:5-42
MERGED from [com.google.firebase:firebase-messaging:10.0.1] /Users/inkg/.android/build-cache/a0cdf3e8244841f811406207b28dfd47230e22ef/output/AndroidManifest.xml:17:5-42
MERGED from [com.google.firebase:firebase-iid:10.0.1] /Users/inkg/.android/build-cache/ef4bad313b501558d1af6295f273dc94899a34c3/output/AndroidManifest.xml:17:5-42
MERGED from [com.google.firebase:firebase-common:10.0.1] /Users/inkg/.android/build-cache/98b068c25abcd044564aa88d3ec8b3420e987280/output/AndroidManifest.xml:3:5-42
MERGED from [com.google.android.gms:play-services-tasks:10.0.1] /Users/inkg/.android/build-cache/a86acdfa1789b5c19e1c8657cb81ac4f4648d5c1/output/AndroidManifest.xml:3:5-42
MERGED from [com.google.android.gms:play-services-basement:10.0.1] /Users/inkg/.android/build-cache/d103f89c97152e4c278470aae83350d7e449bf71/output/AndroidManifest.xml:17:5-42
MERGED from [com.android.support:support-v4:25.0.0] /Users/inkg/.android/build-cache/90096472bc6afcc4a8872b25e2116a9eecd3e9aa/output/AndroidManifest.xml:21:5-23:54
MERGED from [com.android.support:support-fragment:25.0.0] /Users/inkg/.android/build-cache/fd09ab1746b071e524b7da72498ecc438ad6d269/output/AndroidManifest.xml:21:5-23:60
MERGED from [com.android.support:support-media-compat:25.0.0] /Users/inkg/.android/build-cache/95c30f337c91e94dc70a7c8c06a18008e40ae943/output/AndroidManifest.xml:21:5-23:63
MERGED from [com.android.support:support-core-ui:25.0.0] /Users/inkg/.android/build-cache/5d479f06ee5d5df4c8b3f88fa6195873c233941b/output/AndroidManifest.xml:21:5-23:58
MERGED from [com.android.support:support-core-utils:25.0.0] /Users/inkg/.android/build-cache/58ba599cd79850745440d5db74dff80ad8243b49/output/AndroidManifest.xml:21:5-23:61
MERGED from [com.android.support:support-compat:25.0.0] /Users/inkg/.android/build-cache/b882b04bba7b54d78049f621ca9dc23d9074efc5/output/AndroidManifest.xml:21:5-23:58
	tools:overrideLibrary
		ADDED from [com.android.support:design:25.0.0] /Users/inkg/.android/build-cache/0910b8cf49615cc0c9f7e7ff7a12e58cd0fc5f3b/output/AndroidManifest.xml:23:9-59
	android:targetSdkVersion
		INJECTED from /Users/inkg/Downloads/AndroidStudioProjects/cure/app/src/main/AndroidManifest.xml
		INJECTED from /Users/inkg/Downloads/AndroidStudioProjects/cure/app/src/main/AndroidManifest.xml
	android:minSdkVersion
		INJECTED from /Users/inkg/Downloads/AndroidStudioProjects/cure/app/src/main/AndroidManifest.xml
		INJECTED from /Users/inkg/Downloads/AndroidStudioProjects/cure/app/src/main/AndroidManifest.xml
activity#com.facebook.FacebookActivity
ADDED from [com.facebook.android:facebook-android-sdk:4.20.0] /Users/inkg/.android/build-cache/dde8ae7dec1239f8df56a1c691404af47359be9e/output/AndroidManifest.xml:29:9-32:66
	android:configChanges
		ADDED from [com.facebook.android:facebook-android-sdk:4.20.0] /Users/inkg/.android/build-cache/dde8ae7dec1239f8df56a1c691404af47359be9e/output/AndroidManifest.xml:31:13-96
	android:theme
		ADDED from [com.facebook.android:facebook-android-sdk:4.20.0] /Users/inkg/.android/build-cache/dde8ae7dec1239f8df56a1c691404af47359be9e/output/AndroidManifest.xml:32:13-63
	android:name
		ADDED from [com.facebook.android:facebook-android-sdk:4.20.0] /Users/inkg/.android/build-cache/dde8ae7dec1239f8df56a1c691404af47359be9e/output/AndroidManifest.xml:30:13-57
activity#com.facebook.CustomTabMainActivity
ADDED from [com.facebook.android:facebook-android-sdk:4.20.0] /Users/inkg/.android/build-cache/dde8ae7dec1239f8df56a1c691404af47359be9e/output/AndroidManifest.xml:33:9-71
	android:name
		ADDED from [com.facebook.android:facebook-android-sdk:4.20.0] /Users/inkg/.android/build-cache/dde8ae7dec1239f8df56a1c691404af47359be9e/output/AndroidManifest.xml:33:19-68
provider#com.facebook.internal.FacebookInitProvider
ADDED from [com.facebook.android:facebook-android-sdk:4.20.0] /Users/inkg/.android/build-cache/dde8ae7dec1239f8df56a1c691404af47359be9e/output/AndroidManifest.xml:44:9-47:40
	android:authorities
		ADDED from [com.facebook.android:facebook-android-sdk:4.20.0] /Users/inkg/.android/build-cache/dde8ae7dec1239f8df56a1c691404af47359be9e/output/AndroidManifest.xml:46:13-72
	android:exported
		ADDED from [com.facebook.android:facebook-android-sdk:4.20.0] /Users/inkg/.android/build-cache/dde8ae7dec1239f8df56a1c691404af47359be9e/output/AndroidManifest.xml:47:13-37
	android:name
		ADDED from [com.facebook.android:facebook-android-sdk:4.20.0] /Users/inkg/.android/build-cache/dde8ae7dec1239f8df56a1c691404af47359be9e/output/AndroidManifest.xml:45:13-70
uses-permission#android.permission.ACCESS_NETWORK_STATE
ADDED from [com.google.android.gms:play-services-ads-lite:10.0.1] /Users/inkg/.android/build-cache/9bde6462b39cd977fa2028eab51f9270d14d7c09/output/AndroidManifest.xml:20:5-78
MERGED from [com.google.android.gms:play-services-analytics:10.0.1] /Users/inkg/.android/build-cache/53c6afc4ef4d19c7265fa1b756b91e5f5c559549/output/AndroidManifest.xml:21:5-78
MERGED from [com.google.android.gms:play-services-nearby:10.0.1] /Users/inkg/.android/build-cache/d0779a03fbc948f8db8824b370ae2e53fa17326c/output/AndroidManifest.xml:4:5-78
MERGED from [com.google.android.gms:play-services-tagmanager-api:10.0.1] /Users/inkg/.android/build-cache/e21168f0beefdede07a4e3243c828b1e0ee49733/output/AndroidManifest.xml:21:5-78
MERGED from [com.google.android.gms:play-services-analytics-impl:10.0.1] /Users/inkg/.android/build-cache/13cbd319922e25cb3052fbb86ba797b2ef210da8/output/AndroidManifest.xml:21:5-78
MERGED from [com.google.android.gms:play-services-maps:10.0.1] /Users/inkg/.android/build-cache/dbc1faa1e282ad350110366d28c16fc3ec824940/output/AndroidManifest.xml:19:5-78
MERGED from [com.google.firebase:firebase-analytics:10.0.1] /Users/inkg/.android/build-cache/432cc389c163af1aa8bb9ee27a882e4768e036ad/output/AndroidManifest.xml:21:5-78
MERGED from [com.google.firebase:firebase-analytics-impl:10.0.1] /Users/inkg/.android/build-cache/dc72a121259a6b1f9a5110cc11cbd1883ac38b04/output/AndroidManifest.xml:21:5-78
MERGED from [com.google.firebase:firebase-iid:10.0.1] /Users/inkg/.android/build-cache/ef4bad313b501558d1af6295f273dc94899a34c3/output/AndroidManifest.xml:19:5-78
	android:name
		ADDED from [com.google.android.gms:play-services-ads-lite:10.0.1] /Users/inkg/.android/build-cache/9bde6462b39cd977fa2028eab51f9270d14d7c09/output/AndroidManifest.xml:20:22-76
activity#com.google.android.gms.ads.AdActivity
ADDED from [com.google.android.gms:play-services-ads-lite:10.0.1] /Users/inkg/.android/build-cache/9bde6462b39cd977fa2028eab51f9270d14d7c09/output/AndroidManifest.xml:25:9-232
	android:configChanges
		ADDED from [com.google.android.gms:play-services-ads-lite:10.0.1] /Users/inkg/.android/build-cache/9bde6462b39cd977fa2028eab51f9270d14d7c09/output/AndroidManifest.xml:25:72-181
	android:theme
		ADDED from [com.google.android.gms:play-services-ads-lite:10.0.1] /Users/inkg/.android/build-cache/9bde6462b39cd977fa2028eab51f9270d14d7c09/output/AndroidManifest.xml:25:182-230
	android:name
		ADDED from [com.google.android.gms:play-services-ads-lite:10.0.1] /Users/inkg/.android/build-cache/9bde6462b39cd977fa2028eab51f9270d14d7c09/output/AndroidManifest.xml:25:19-71
activity#com.google.android.gms.ads.purchase.InAppPurchaseActivity
ADDED from [com.google.android.gms:play-services-ads-lite:10.0.1] /Users/inkg/.android/build-cache/9bde6462b39cd977fa2028eab51f9270d14d7c09/output/AndroidManifest.xml:26:9-131
	android:theme
		ADDED from [com.google.android.gms:play-services-ads-lite:10.0.1] /Users/inkg/.android/build-cache/9bde6462b39cd977fa2028eab51f9270d14d7c09/output/AndroidManifest.xml:26:92-129
	android:name
		ADDED from [com.google.android.gms:play-services-ads-lite:10.0.1] /Users/inkg/.android/build-cache/9bde6462b39cd977fa2028eab51f9270d14d7c09/output/AndroidManifest.xml:26:19-91
uses-permission#android.permission.WAKE_LOCK
ADDED from [com.google.android.gms:play-services-analytics:10.0.1] /Users/inkg/.android/build-cache/53c6afc4ef4d19c7265fa1b756b91e5f5c559549/output/AndroidManifest.xml:24:5-67
MERGED from [com.google.android.gms:play-services-analytics-impl:10.0.1] /Users/inkg/.android/build-cache/13cbd319922e25cb3052fbb86ba797b2ef210da8/output/AndroidManifest.xml:24:5-67
MERGED from [com.google.firebase:firebase-analytics:10.0.1] /Users/inkg/.android/build-cache/432cc389c163af1aa8bb9ee27a882e4768e036ad/output/AndroidManifest.xml:22:5-67
MERGED from [com.google.firebase:firebase-analytics-impl:10.0.1] /Users/inkg/.android/build-cache/dc72a121259a6b1f9a5110cc11cbd1883ac38b04/output/AndroidManifest.xml:22:5-67
MERGED from [com.google.firebase:firebase-iid:10.0.1] /Users/inkg/.android/build-cache/ef4bad313b501558d1af6295f273dc94899a34c3/output/AndroidManifest.xml:21:5-67
	android:name
		ADDED from [com.google.android.gms:play-services-analytics:10.0.1] /Users/inkg/.android/build-cache/53c6afc4ef4d19c7265fa1b756b91e5f5c559549/output/AndroidManifest.xml:24:22-65
activity#com.google.android.gms.appinvite.PreviewActivity
ADDED from [com.google.android.gms:play-services-appinvite:10.0.1] /Users/inkg/.android/build-cache/76915d3e6158266326afb2ecf6e3164a0bdc5a88/output/AndroidManifest.xml:20:9-25:20
	android:exported
		ADDED from [com.google.android.gms:play-services-appinvite:10.0.1] /Users/inkg/.android/build-cache/76915d3e6158266326afb2ecf6e3164a0bdc5a88/output/AndroidManifest.xml:20:51-74
	android:theme
		ADDED from [com.google.android.gms:play-services-appinvite:10.0.1] /Users/inkg/.android/build-cache/76915d3e6158266326afb2ecf6e3164a0bdc5a88/output/AndroidManifest.xml:20:75-121
	android:name
		ADDED from [com.google.android.gms:play-services-appinvite:10.0.1] /Users/inkg/.android/build-cache/76915d3e6158266326afb2ecf6e3164a0bdc5a88/output/AndroidManifest.xml:20:19-50
intent-filter#android.intent.category.DEFAULT+com.google.android.gms.appinvite.ACTION_PREVIEW
ADDED from [com.google.android.gms:play-services-appinvite:10.0.1] /Users/inkg/.android/build-cache/76915d3e6158266326afb2ecf6e3164a0bdc5a88/output/AndroidManifest.xml:21:13-24:29
action#com.google.android.gms.appinvite.ACTION_PREVIEW
ADDED from [com.google.android.gms:play-services-appinvite:10.0.1] /Users/inkg/.android/build-cache/76915d3e6158266326afb2ecf6e3164a0bdc5a88/output/AndroidManifest.xml:22:17-89
	android:name
		ADDED from [com.google.android.gms:play-services-appinvite:10.0.1] /Users/inkg/.android/build-cache/76915d3e6158266326afb2ecf6e3164a0bdc5a88/output/AndroidManifest.xml:22:25-87
activity#com.google.android.gms.auth.api.signin.internal.SignInHubActivity
ADDED from [com.google.android.gms:play-services-auth:10.0.1] /Users/inkg/.android/build-cache/9f8a74225df025fd45009570616517873d798436/output/AndroidManifest.xml:20:9-189
	android:excludeFromRecents
		ADDED from [com.google.android.gms:play-services-auth:10.0.1] /Users/inkg/.android/build-cache/9f8a74225df025fd45009570616517873d798436/output/AndroidManifest.xml:20:129-162
	android:exported
		ADDED from [com.google.android.gms:play-services-auth:10.0.1] /Users/inkg/.android/build-cache/9f8a74225df025fd45009570616517873d798436/output/AndroidManifest.xml:20:163-187
	android:theme
		ADDED from [com.google.android.gms:play-services-auth:10.0.1] /Users/inkg/.android/build-cache/9f8a74225df025fd45009570616517873d798436/output/AndroidManifest.xml:20:69-128
	android:name
		ADDED from [com.google.android.gms:play-services-auth:10.0.1] /Users/inkg/.android/build-cache/9f8a74225df025fd45009570616517873d798436/output/AndroidManifest.xml:20:19-68
service#com.google.android.gms.auth.api.signin.RevocationBoundService
ADDED from [com.google.android.gms:play-services-auth:10.0.1] /Users/inkg/.android/build-cache/9f8a74225df025fd45009570616517873d798436/output/AndroidManifest.xml:24:9-184
	android:exported
		ADDED from [com.google.android.gms:play-services-auth:10.0.1] /Users/inkg/.android/build-cache/9f8a74225df025fd45009570616517873d798436/output/AndroidManifest.xml:24:64-87
	android:permission
		ADDED from [com.google.android.gms:play-services-auth:10.0.1] /Users/inkg/.android/build-cache/9f8a74225df025fd45009570616517873d798436/output/AndroidManifest.xml:24:88-182
	android:name
		ADDED from [com.google.android.gms:play-services-auth:10.0.1] /Users/inkg/.android/build-cache/9f8a74225df025fd45009570616517873d798436/output/AndroidManifest.xml:24:18-63
receiver#com.google.android.gms.cast.framework.media.MediaIntentReceiver
ADDED from [com.google.android.gms:play-services-cast-framework:10.0.1] /Users/inkg/.android/build-cache/0fb74694bbd38bc5a47743a263b0322223a66fee/output/AndroidManifest.xml:5:9-99
	android:name
		ADDED from [com.google.android.gms:play-services-cast-framework:10.0.1] /Users/inkg/.android/build-cache/0fb74694bbd38bc5a47743a263b0322223a66fee/output/AndroidManifest.xml:5:19-97
service#com.google.android.gms.cast.framework.media.MediaNotificationService
ADDED from [com.google.android.gms:play-services-cast-framework:10.0.1] /Users/inkg/.android/build-cache/0fb74694bbd38bc5a47743a263b0322223a66fee/output/AndroidManifest.xml:6:9-103
	android:name
		ADDED from [com.google.android.gms:play-services-cast-framework:10.0.1] /Users/inkg/.android/build-cache/0fb74694bbd38bc5a47743a263b0322223a66fee/output/AndroidManifest.xml:6:18-101
service#com.google.android.gms.cast.framework.ReconnectionService
ADDED from [com.google.android.gms:play-services-cast-framework:10.0.1] /Users/inkg/.android/build-cache/0fb74694bbd38bc5a47743a263b0322223a66fee/output/AndroidManifest.xml:7:9-92
	android:name
		ADDED from [com.google.android.gms:play-services-cast-framework:10.0.1] /Users/inkg/.android/build-cache/0fb74694bbd38bc5a47743a263b0322223a66fee/output/AndroidManifest.xml:7:18-90
service#com.google.android.gms.tagmanager.TagManagerService
ADDED from [com.google.android.gms:play-services-tagmanager-api:10.0.1] /Users/inkg/.android/build-cache/e21168f0beefdede07a4e3243c828b1e0ee49733/output/AndroidManifest.xml:24:9-134
	android:enabled
		ADDED from [com.google.android.gms:play-services-tagmanager-api:10.0.1] /Users/inkg/.android/build-cache/e21168f0beefdede07a4e3243c828b1e0ee49733/output/AndroidManifest.xml:24:110-132
	android:exported
		ADDED from [com.google.android.gms:play-services-tagmanager-api:10.0.1] /Users/inkg/.android/build-cache/e21168f0beefdede07a4e3243c828b1e0ee49733/output/AndroidManifest.xml:24:85-109
	android:name
		ADDED from [com.google.android.gms:play-services-tagmanager-api:10.0.1] /Users/inkg/.android/build-cache/e21168f0beefdede07a4e3243c828b1e0ee49733/output/AndroidManifest.xml:24:18-84
activity#com.google.android.gms.tagmanager.TagManagerPreviewActivity
ADDED from [com.google.android.gms:play-services-tagmanager-api:10.0.1] /Users/inkg/.android/build-cache/e21168f0beefdede07a4e3243c828b1e0ee49733/output/AndroidManifest.xml:25:9-32:20
	android:noHistory
		ADDED from [com.google.android.gms:play-services-tagmanager-api:10.0.1] /Users/inkg/.android/build-cache/e21168f0beefdede07a4e3243c828b1e0ee49733/output/AndroidManifest.xml:25:94-118
	android:name
		ADDED from [com.google.android.gms:play-services-tagmanager-api:10.0.1] /Users/inkg/.android/build-cache/e21168f0beefdede07a4e3243c828b1e0ee49733/output/AndroidManifest.xml:25:19-93
uses-feature#0x00020000
ADDED from [com.google.android.gms:play-services-maps:10.0.1] /Users/inkg/.android/build-cache/dbc1faa1e282ad350110366d28c16fc3ec824940/output/AndroidManifest.xml:21:5-77
	android:glEsVersion
		ADDED from [com.google.android.gms:play-services-maps:10.0.1] /Users/inkg/.android/build-cache/dbc1faa1e282ad350110366d28c16fc3ec824940/output/AndroidManifest.xml:21:19-51
	android:required
		ADDED from [com.google.android.gms:play-services-maps:10.0.1] /Users/inkg/.android/build-cache/dbc1faa1e282ad350110366d28c16fc3ec824940/output/AndroidManifest.xml:21:52-75
uses-permission#com.google.android.c2dm.permission.RECEIVE
ADDED from [com.google.android.gms:play-services-gcm:10.0.1] /Users/inkg/.android/build-cache/4e79801b681974c2f1d626746f2ef7bd2f998dcc/output/AndroidManifest.xml:20:5-81
MERGED from [com.google.android.gms:play-services-iid:10.0.1] /Users/inkg/.android/build-cache/dfc1ff7203ce8d23b9092804a27681293439777b/output/AndroidManifest.xml:20:5-81
MERGED from [com.google.firebase:firebase-iid:10.0.1] /Users/inkg/.android/build-cache/ef4bad313b501558d1af6295f273dc94899a34c3/output/AndroidManifest.xml:22:5-81
	android:name
		ADDED from [com.google.android.gms:play-services-gcm:10.0.1] /Users/inkg/.android/build-cache/4e79801b681974c2f1d626746f2ef7bd2f998dcc/output/AndroidManifest.xml:20:22-79
activity#com.google.android.gms.common.api.GoogleApiActivity
ADDED from [com.google.android.gms:play-services-base:10.0.1] /Users/inkg/.android/build-cache/4a4b54de7de921bc0ac5379b05cbce49c1bd7389/output/AndroidManifest.xml:19:9-172
	android:exported
		ADDED from [com.google.android.gms:play-services-base:10.0.1] /Users/inkg/.android/build-cache/4a4b54de7de921bc0ac5379b05cbce49c1bd7389/output/AndroidManifest.xml:19:146-170
	android:theme
		ADDED from [com.google.android.gms:play-services-base:10.0.1] /Users/inkg/.android/build-cache/4a4b54de7de921bc0ac5379b05cbce49c1bd7389/output/AndroidManifest.xml:19:86-145
	android:name
		ADDED from [com.google.android.gms:play-services-base:10.0.1] /Users/inkg/.android/build-cache/4a4b54de7de921bc0ac5379b05cbce49c1bd7389/output/AndroidManifest.xml:19:19-85
activity#com.gun0912.tedpermission.TedPermissionActivity
ADDED from [gun0912.ted:tedpermission:1.0.2] /Users/inkg/.android/build-cache/86c0dd72c4b55044c73b091dea782ccd5f7d0fb9/output/AndroidManifest.xml:10:9-12:56
	android:theme
		ADDED from [gun0912.ted:tedpermission:1.0.2] /Users/inkg/.android/build-cache/86c0dd72c4b55044c73b091dea782ccd5f7d0fb9/output/AndroidManifest.xml:12:13-53
	android:name
		ADDED from [gun0912.ted:tedpermission:1.0.2] /Users/inkg/.android/build-cache/86c0dd72c4b55044c73b091dea782ccd5f7d0fb9/output/AndroidManifest.xml:11:13-75
receiver#com.google.android.gms.measurement.AppMeasurementReceiver
ADDED from [com.google.firebase:firebase-analytics:10.0.1] /Users/inkg/.android/build-cache/432cc389c163af1aa8bb9ee27a882e4768e036ad/output/AndroidManifest.xml:25:7-26:18
MERGED from [com.google.firebase:firebase-analytics-impl:10.0.1] /Users/inkg/.android/build-cache/dc72a121259a6b1f9a5110cc11cbd1883ac38b04/output/AndroidManifest.xml:25:7-26:18
	android:enabled
		ADDED from [com.google.firebase:firebase-analytics:10.0.1] /Users/inkg/.android/build-cache/432cc389c163af1aa8bb9ee27a882e4768e036ad/output/AndroidManifest.xml:25:90-112
	android:exported
		ADDED from [com.google.firebase:firebase-analytics:10.0.1] /Users/inkg/.android/build-cache/432cc389c163af1aa8bb9ee27a882e4768e036ad/output/AndroidManifest.xml:25:113-137
	android:name
		ADDED from [com.google.firebase:firebase-analytics:10.0.1] /Users/inkg/.android/build-cache/432cc389c163af1aa8bb9ee27a882e4768e036ad/output/AndroidManifest.xml:25:17-89
receiver#com.google.android.gms.measurement.AppMeasurementInstallReferrerReceiver
ADDED from [com.google.firebase:firebase-analytics:10.0.1] /Users/inkg/.android/build-cache/432cc389c163af1aa8bb9ee27a882e4768e036ad/output/AndroidManifest.xml:27:7-31:18
	android:enabled
		ADDED from [com.google.firebase:firebase-analytics:10.0.1] /Users/inkg/.android/build-cache/432cc389c163af1aa8bb9ee27a882e4768e036ad/output/AndroidManifest.xml:27:162-184
	android:permission
		ADDED from [com.google.firebase:firebase-analytics:10.0.1] /Users/inkg/.android/build-cache/432cc389c163af1aa8bb9ee27a882e4768e036ad/output/AndroidManifest.xml:27:105-161
	android:name
		ADDED from [com.google.firebase:firebase-analytics:10.0.1] /Users/inkg/.android/build-cache/432cc389c163af1aa8bb9ee27a882e4768e036ad/output/AndroidManifest.xml:27:17-104
intent-filter#com.android.vending.INSTALL_REFERRER
ADDED from [com.google.firebase:firebase-analytics:10.0.1] /Users/inkg/.android/build-cache/432cc389c163af1aa8bb9ee27a882e4768e036ad/output/AndroidManifest.xml:28:11-30:27
action#com.android.vending.INSTALL_REFERRER
ADDED from [com.google.firebase:firebase-analytics:10.0.1] /Users/inkg/.android/build-cache/432cc389c163af1aa8bb9ee27a882e4768e036ad/output/AndroidManifest.xml:29:15-76
	android:name
		ADDED from [com.google.firebase:firebase-analytics:10.0.1] /Users/inkg/.android/build-cache/432cc389c163af1aa8bb9ee27a882e4768e036ad/output/AndroidManifest.xml:29:23-74
service#com.google.android.gms.measurement.AppMeasurementService
ADDED from [com.google.firebase:firebase-analytics:10.0.1] /Users/inkg/.android/build-cache/432cc389c163af1aa8bb9ee27a882e4768e036ad/output/AndroidManifest.xml:32:7-137
MERGED from [com.google.firebase:firebase-analytics-impl:10.0.1] /Users/inkg/.android/build-cache/dc72a121259a6b1f9a5110cc11cbd1883ac38b04/output/AndroidManifest.xml:27:7-137
	android:enabled
		ADDED from [com.google.firebase:firebase-analytics:10.0.1] /Users/inkg/.android/build-cache/432cc389c163af1aa8bb9ee27a882e4768e036ad/output/AndroidManifest.xml:32:88-110
	android:exported
		ADDED from [com.google.firebase:firebase-analytics:10.0.1] /Users/inkg/.android/build-cache/432cc389c163af1aa8bb9ee27a882e4768e036ad/output/AndroidManifest.xml:32:111-135
	android:name
		ADDED from [com.google.firebase:firebase-analytics:10.0.1] /Users/inkg/.android/build-cache/432cc389c163af1aa8bb9ee27a882e4768e036ad/output/AndroidManifest.xml:32:16-87
service#com.google.firebase.messaging.FirebaseMessagingService
ADDED from [com.google.firebase:firebase-messaging:10.0.1] /Users/inkg/.android/build-cache/a0cdf3e8244841f811406207b28dfd47230e22ef/output/AndroidManifest.xml:23:9-27:19
	android:exported
		ADDED from [com.google.firebase:firebase-messaging:10.0.1] /Users/inkg/.android/build-cache/a0cdf3e8244841f811406207b28dfd47230e22ef/output/AndroidManifest.xml:23:88-111
	android:name
		ADDED from [com.google.firebase:firebase-messaging:10.0.1] /Users/inkg/.android/build-cache/a0cdf3e8244841f811406207b28dfd47230e22ef/output/AndroidManifest.xml:23:18-87
permission#${applicationId}.permission.C2D_MESSAGE
ADDED from [com.google.firebase:firebase-iid:10.0.1] /Users/inkg/.android/build-cache/ef4bad313b501558d1af6295f273dc94899a34c3/output/AndroidManifest.xml:24:5-109
	android:protectionLevel
		ADDED from [com.google.firebase:firebase-iid:10.0.1] /Users/inkg/.android/build-cache/ef4bad313b501558d1af6295f273dc94899a34c3/output/AndroidManifest.xml:24:72-107
	android:name
		ADDED from [com.google.firebase:firebase-iid:10.0.1] /Users/inkg/.android/build-cache/ef4bad313b501558d1af6295f273dc94899a34c3/output/AndroidManifest.xml:24:17-71
uses-permission#${applicationId}.permission.C2D_MESSAGE
ADDED from [com.google.firebase:firebase-iid:10.0.1] /Users/inkg/.android/build-cache/ef4bad313b501558d1af6295f273dc94899a34c3/output/AndroidManifest.xml:26:5-78
	android:name
		ADDED from [com.google.firebase:firebase-iid:10.0.1] /Users/inkg/.android/build-cache/ef4bad313b501558d1af6295f273dc94899a34c3/output/AndroidManifest.xml:26:22-76
receiver#com.google.firebase.iid.FirebaseInstanceIdReceiver
ADDED from [com.google.firebase:firebase-iid:10.0.1] /Users/inkg/.android/build-cache/ef4bad313b501558d1af6295f273dc94899a34c3/output/AndroidManifest.xml:30:9-36:20
	android:exported
		ADDED from [com.google.firebase:firebase-iid:10.0.1] /Users/inkg/.android/build-cache/ef4bad313b501558d1af6295f273dc94899a34c3/output/AndroidManifest.xml:30:85-108
	android:permission
		ADDED from [com.google.firebase:firebase-iid:10.0.1] /Users/inkg/.android/build-cache/ef4bad313b501558d1af6295f273dc94899a34c3/output/AndroidManifest.xml:30:109-169
	android:name
		ADDED from [com.google.firebase:firebase-iid:10.0.1] /Users/inkg/.android/build-cache/ef4bad313b501558d1af6295f273dc94899a34c3/output/AndroidManifest.xml:30:19-84
intent-filter#${applicationId}+com.google.android.c2dm.intent.RECEIVE+com.google.android.c2dm.intent.REGISTRATION
ADDED from [com.google.firebase:firebase-iid:10.0.1] /Users/inkg/.android/build-cache/ef4bad313b501558d1af6295f273dc94899a34c3/output/AndroidManifest.xml:31:13-35:29
action#com.google.android.c2dm.intent.RECEIVE
ADDED from [com.google.firebase:firebase-iid:10.0.1] /Users/inkg/.android/build-cache/ef4bad313b501558d1af6295f273dc94899a34c3/output/AndroidManifest.xml:32:17-80
	android:name
		ADDED from [com.google.firebase:firebase-iid:10.0.1] /Users/inkg/.android/build-cache/ef4bad313b501558d1af6295f273dc94899a34c3/output/AndroidManifest.xml:32:25-78
action#com.google.android.c2dm.intent.REGISTRATION
ADDED from [com.google.firebase:firebase-iid:10.0.1] /Users/inkg/.android/build-cache/ef4bad313b501558d1af6295f273dc94899a34c3/output/AndroidManifest.xml:33:17-85
	android:name
		ADDED from [com.google.firebase:firebase-iid:10.0.1] /Users/inkg/.android/build-cache/ef4bad313b501558d1af6295f273dc94899a34c3/output/AndroidManifest.xml:33:25-83
category#${applicationId}
ADDED from [com.google.firebase:firebase-iid:10.0.1] /Users/inkg/.android/build-cache/ef4bad313b501558d1af6295f273dc94899a34c3/output/AndroidManifest.xml:34:17-60
	android:name
		ADDED from [com.google.firebase:firebase-iid:10.0.1] /Users/inkg/.android/build-cache/ef4bad313b501558d1af6295f273dc94899a34c3/output/AndroidManifest.xml:34:27-58
receiver#com.google.firebase.iid.FirebaseInstanceIdInternalReceiver
ADDED from [com.google.firebase:firebase-iid:10.0.1] /Users/inkg/.android/build-cache/ef4bad313b501558d1af6295f273dc94899a34c3/output/AndroidManifest.xml:40:9-119
	android:exported
		ADDED from [com.google.firebase:firebase-iid:10.0.1] /Users/inkg/.android/build-cache/ef4bad313b501558d1af6295f273dc94899a34c3/output/AndroidManifest.xml:40:93-117
	android:name
		ADDED from [com.google.firebase:firebase-iid:10.0.1] /Users/inkg/.android/build-cache/ef4bad313b501558d1af6295f273dc94899a34c3/output/AndroidManifest.xml:40:19-92
service#com.google.firebase.iid.FirebaseInstanceIdService
ADDED from [com.google.firebase:firebase-iid:10.0.1] /Users/inkg/.android/build-cache/ef4bad313b501558d1af6295f273dc94899a34c3/output/AndroidManifest.xml:44:9-48:19
	android:exported
		ADDED from [com.google.firebase:firebase-iid:10.0.1] /Users/inkg/.android/build-cache/ef4bad313b501558d1af6295f273dc94899a34c3/output/AndroidManifest.xml:44:83-106
	android:name
		ADDED from [com.google.firebase:firebase-iid:10.0.1] /Users/inkg/.android/build-cache/ef4bad313b501558d1af6295f273dc94899a34c3/output/AndroidManifest.xml:44:18-82
provider#com.google.firebase.provider.FirebaseInitProvider
ADDED from [com.google.firebase:firebase-common:10.0.1] /Users/inkg/.android/build-cache/98b068c25abcd044564aa88d3ec8b3420e987280/output/AndroidManifest.xml:6:9-194
	android:authorities
		ADDED from [com.google.firebase:firebase-common:10.0.1] /Users/inkg/.android/build-cache/98b068c25abcd044564aa88d3ec8b3420e987280/output/AndroidManifest.xml:6:19-78
	android:exported
		ADDED from [com.google.firebase:firebase-common:10.0.1] /Users/inkg/.android/build-cache/98b068c25abcd044564aa88d3ec8b3420e987280/output/AndroidManifest.xml:6:144-168
	android:initOrder
		ADDED from [com.google.firebase:firebase-common:10.0.1] /Users/inkg/.android/build-cache/98b068c25abcd044564aa88d3ec8b3420e987280/output/AndroidManifest.xml:6:169-192
	android:name
		ADDED from [com.google.firebase:firebase-common:10.0.1] /Users/inkg/.android/build-cache/98b068c25abcd044564aa88d3ec8b3420e987280/output/AndroidManifest.xml:6:79-143
meta-data#com.google.android.gms.version
ADDED from [com.google.android.gms:play-services-basement:10.0.1] /Users/inkg/.android/build-cache/d103f89c97152e4c278470aae83350d7e449bf71/output/AndroidManifest.xml:20:9-121
	android:value
		ADDED from [com.google.android.gms:play-services-basement:10.0.1] /Users/inkg/.android/build-cache/d103f89c97152e4c278470aae83350d7e449bf71/output/AndroidManifest.xml:20:66-119
	android:name
		ADDED from [com.google.android.gms:play-services-basement:10.0.1] /Users/inkg/.android/build-cache/d103f89c97152e4c278470aae83350d7e449bf71/output/AndroidManifest.xml:20:20-65
